{"url":"https://www.pbtech.co.nz/category/peripherals/cables/usb-c-cables/usb-c-usb-c-cables","title":"USB-C to USB-C Cables - PBTech.co.nz","count":20,"total":410,"page":1,"pages":21,"spec_fields_seen":["Braided","Cable Length","Colour","Connector 1","Connector 2","HDMI Version","MPN","Part #"],"products":[{"part":"CABUGR50125","title":"UGREEN UG-50125 60W PD - 3A USB-C Cable - 2m - Grey / Black","subtitle":"Right Angled - Nylon Braided - Aluminum Case","url":"https://www.pbtech.co.nz/product/CABUGR50125/UGREEN-UG-50125-60W-PD---3A-USB-C-Cable---2m---Gre","price_nzd_inc_gst":13.06,"specs":{"Cable Length":"2m","Colour":"Black","Connector 1":"USB-C (Male)","Connector 2":"USB-C (Male)","Braided":"Yes","HDMI Version":"N/A","MPN":"UG-50125","Part #":"CABUGR50125"}},{"part":"CABUGR70429","title":"UGREEN UG-70429 USB-C Cable - 2m - Black","subtitle":"Aluminum Case - Braided","url":"https://www.pbtech.co.nz/product/CABUGR70429/UGREEN-UG-70429-USB-C-Cable---2m---Black-Aluminum","price_nzd_inc_gst":15.96,"specs":{"Cable Length":"2m","Colour":"Black","Connector 1":"USB-C (Male)","Connector 2":"USB-C (Male)","Braided":"Yes","HDMI Version":"N/A","MPN":"UG-70429","Part #":"CABUGR70429"}},{"part":"CABAPP5922292","title":"Apple USB-C Cable - 2m","subtitle":"240W - Woven","url":"https://www.pbtech.co.nz/product/CABAPP5922292/Apple-USB-C-Cable---2m-240W---Woven","price_nzd_inc_gst":52,"specs":{"Cable Length":"2m","Colour":"White","Connector 1":"USB-C (Male)","Connector 2":"USB-C (Male)","Braided":"No","HDMI Version":"N/A","MPN":"MYQT3FE/A","Part #":"CABAPP5922292"}},{"part":"CABCUK000005","title":"CUKTECH 240W 6A 1.5m USB-C to USB-C Fast Charging Braided Cable - Black -","subtitle":"Max 240W Ouput - Built-in E-Marker Intelligent Chip- Fast Charging iPhone, iPad,MacBook, Samsung Phones, Laptop - Suppport Up To Xiaomi 120W HyperCharge - Kevlar Strength","url":"https://www.pbtech.co.nz/product/CABCUK000005/CUKTECH-240W-6A-15m-USB-C-to-USB-C-Fast-Charging-B","price_nzd_inc_gst":18.6,"specs":{"Cable Length":"1.5m","Colour":"Black","Connector 1":"USB-C (Male)","Connector 2":"USB-C (Male)","Braided":"Yes","HDMI Version":"N/A","MPN":"CTC615W Black","Part #":"CABCUK000005"}},{"part":"CABUGR70645","title":"UGREEN UG-70645 5A - 100W PD USB-C Cable - 2m - Black","subtitle":"Angled - Aluminium Shell - Braided - PD3.0/QC4.0/FCP","url":"https://www.pbtech.co.nz/product/CABUGR70645/UGREEN-UG-70645-5A---100W-PD-USB-C-Cable---2m---Bl","price_nzd_inc_gst":17.93,"specs":{"Cable Length":"2m","Colour":"Black","Connector 1":"USB-C (Male)","Connector 2":"USB-C (Male)","Braided":"Yes","HDMI Version":"N/A","MPN":"UG-70645","Part #":"CABUGR70645"}},{"part":"CABUNI0082","title":"Unitek C14086BK USB 3.1 USB-C Extension Cable - 50cm - Black","subtitle":"Up to 10Gbps - Reversible USB-C - Power Delivery - Sync & Charge","url":"https://www.pbtech.co.nz/product/CABUNI0082/Unitek-C14086BK-USB-31-USB-C-Extension-Cable---50c","price_nzd_inc_gst":19.95,"specs":{"Cable Length":"0.5m","Colour":"Black","Connector 1":"USB-C (Male)","Connector 2":"USB-C (Female)","Braided":"Not Specified","HDMI Version":"N/A","MPN":"C14086BK","Part #":"CABUNI0082"}},{"part":"CABCUK000008","title":"CUKTECH 240W 6A 1.5m USB-C to USB-C Fast Charging Braided Cable - Orange -","subtitle":"Max 240W Ouput - Built-in E-Marker Intelligent Chip- Fast Charging iPhone, iPad,MacBook, Samsung Phones, Laptop - Suppport Up To Xiaomi 120W HyperCharge - Kevlar Strength","url":"https://www.pbtech.co.nz/product/CABCUK000008/CUKTECH-240W-6A-15m-USB-C-to-USB-C-Fast-Charging-B","price_nzd_inc_gst":18.6,"specs":{"Cable Length":"1.5m","Colour":"Orange","Connector 1":"USB-C (Male)","Connector 2":"USB-C (Male)","Braided":"Yes","HDMI Version":"N/A","MPN":"CTC615W Orange","Part #":"CABCUK000008"}},{"part":"CABBEL6593822","title":"Belkin BoostCharge USB-C to USB-C Cable 60W - 1m ( Black )","subtitle":null,"url":"https://www.pbtech.co.nz/product/CABBEL6593822/Belkin-BoostCharge-USB-C-to-USB-C-Cable-60W---1m","price_nzd_inc_gst":19,"specs":{"Cable Length":"1m","Colour":"Black","Connector 1":"USB-C (Male)","Connector 2":"USB-C (Male)","Braided":"No","HDMI Version":"N/A","MPN":"CAB023fq1MBK","Part #":"CABBEL6593822"}},{"part":"CABUGR10306","title":"UGREEN UG-10306 USB 2.0 USB-C Cable - 2m - Black","subtitle":null,"url":"https://www.pbtech.co.nz/product/CABUGR10306/UGREEN-UG-10306-USB-20-USB-C-Cable---2m---Black","price_nzd_inc_gst":8.41,"specs":{"Cable Length":"2m","Colour":"Black","Connector 1":"USB-C (Male)","Connector 2":"USB-C (Male)","Braided":"No","HDMI Version":"N/A","MPN":"UG-10306","Part #":"CABUGR10306"}},{"part":"CABAPP6314062","title":"Apple USB-C Cable - 1m","subtitle":"60W","url":"https://www.pbtech.co.nz/product/CABAPP6314062/Apple-USB-C-Cable---1m-60W","price_nzd_inc_gst":36,"specs":{"Cable Length":"1m","Colour":"White","Connector 1":"USB-C (Male)","Connector 2":"USB-C (Male)","Braided":"Yes","HDMI Version":"N/A","MPN":"MW493FE/A","Part #":"CABAPP6314062"}},{"part":"CABMOX00042","title":"Momax Mag Link 100W USB-C Cable - 1m - Black","subtitle":"PD Fast Charging - Magnetic - Durable Triple Braided Nylon - Supports iPhone / Samsung / Google / Oppo / Oneplus","url":"https://www.pbtech.co.nz/product/CABMOX00042/Momax-Mag-Link-100W-USB-C-Cable---1m---Black-PD-Fa","price_nzd_inc_gst":24,"specs":{"Cable Length":"1m","Colour":"Black","Connector 1":"USB-C (Male)","Connector 2":"USB-C (Male)","Braided":"Yes","HDMI Version":"N/A","MPN":"DC35D","Part #":"CABMOX00042"}},{"part":"CABBEL6593831","title":"Belkin 240W Braided USB-C Cable - 3m - Black","subtitle":null,"url":"https://www.pbtech.co.nz/product/CABBEL6593831/Belkin-240W-Braided-USB-C-Cable---3m---Black","price_nzd_inc_gst":38.46,"specs":{"Cable Length":"3m","Colour":"Black","Connector 1":"USB-C (Male)","Connector 2":"USB-C (Male)","Braided":"Yes","HDMI Version":"N/A","MPN":"CAB025fq3MBK","Part #":"CABBEL6593831"}},{"part":"ADPUGR10387","title":"UGREEN UG-10387 5A - USB 3.2 Gen2 USB-C Male to USB-C Female Extension Cable - 1m - Black","subtitle":null,"url":"https://www.pbtech.co.nz/product/ADPUGR10387/UGREEN-UG-10387-5A---USB-32-Gen2-USB-C-Male-to-USB","price_nzd_inc_gst":23.37,"specs":{"Cable Length":"1m","Colour":"Black","Connector 1":"USB-C (Male)","Connector 2":"USB-C (Female)","Braided":"No","HDMI Version":"N/A","MPN":"UG-10387","Part #":"ADPUGR10387"}},{"part":"CABBTS1090","title":"Beats USB-C to USB-C Woven Cable (1.5 m) - Bolt Black","subtitle":"- Fast Charging and Data Transfer- Tangle-Free Woven Design- Compatible with USBC Devices - Automatic Voltage Regulation","url":"https://www.pbtech.co.nz/product/CABBTS1090/Beats-USB-C-to-USB-C-Woven-Cable-15-m---Bolt-Black","price_nzd_inc_gst":34.95,"specs":{"Cable Length":"1.5m","Colour":"Black","Connector 1":"USB-C (Male)","Connector 2":"USB-C (Male)","Braided":"Yes","HDMI Version":"N/A","MPN":"MDGA4PA/A","Part #":"CABBTS1090"}},{"part":"CABBAS0003","title":"Baseus Dura Fast Charging Data Cable USB-C to USB-C 240W 1m Gold Black","subtitle":null,"url":"https://www.pbtech.co.nz/product/CABBAS0003/Baseus-Dura-Fast-Charging-Data-Cable-USB-C-to-USB","price_nzd_inc_gst":25,"specs":{"Cable Length":"1m","Colour":"Black","Connector 1":"USB-C (Male)","Connector 2":"USB-C (Male)","Braided":"Yes","HDMI Version":"N/A","MPN":"P10377803U03-00","Part #":"CABBAS0003"}},{"part":"CABMOX00044","title":"Momax Mag Link 100W USB-C Cable - 2m - Black","subtitle":"PD Fast Charging - Magnetic - Durable Triple Braided Nylon - Supports iPhone / Samsung / Google / Oppo / Oneplus","url":"https://www.pbtech.co.nz/product/CABMOX00044/Momax-Mag-Link-100W-USB-C-Cable---2m---Black-PD-Fa","price_nzd_inc_gst":33,"specs":{"Cable Length":"2m","Colour":"Black","Connector 1":"USB-C (Male)","Connector 2":"USB-C (Male)","Braided":"Yes","HDMI Version":"N/A","MPN":"DC36D","Part #":"CABMOX00044"}},{"part":"CABMOX00041","title":"Momax Mag Link 100W USB-C Cable - 1m - Titanium","subtitle":"PD Fast Charging - Magnetic - Durable Triple Braided Nylon - Supports iPhone / Samsung / Google / Oppo / Oneplus","url":"https://www.pbtech.co.nz/product/CABMOX00041/Momax-Mag-Link-100W-USB-C-Cable---1m---Titanium-PD","price_nzd_inc_gst":24,"specs":{"Cable Length":"1m","Colour":"Titanium","Connector 1":"USB-C (Male)","Connector 2":"USB-C (Male)","Braided":"Yes","HDMI Version":"N/A","MPN":"DC35L","Part #":"CABMOX00041"}},{"part":"ADPUNI1081","title":"Unitek C14082ABK USB 3.1 Gen2 USB-C Cable - 1m - Space Grey + Black","subtitle":"Up to 100W PD - Up to 4K 60Hz - Up to 10Gbps","url":"https://www.pbtech.co.nz/product/ADPUNI1081/Unitek-C14082ABK-USB-31-Gen2-USB-C-Cable---1m---Sp","price_nzd_inc_gst":22.52,"specs":{"Cable Length":"1m","Colour":"Space Grey","Connector 1":"USB-C (Male)","Connector 2":"USB-C (Male)","Braided":"Not Specified","HDMI Version":"N/A","MPN":"C14082ABK","Part #":"ADPUNI1081"}},{"part":"CABUGR50997","title":"UGREEN 50997 3A - USB 2.0 USB-C Cable - 1m - Black","subtitle":"480Mbps - Nickel Plating Corrosion-resistant bare copper conductors, gold plated connector and foil & braid shielding","url":"https://www.pbtech.co.nz/product/CABUGR50997/UGREEN-50997-3A---USB-20-USB-C-Cable---1m---Black","price_nzd_inc_gst":5.57,"specs":{"Cable Length":"1m","Colour":"Black","Connector 1":"USB-C (Male)","Connector 2":"USB-C (Male)","Braided":"No","HDMI Version":"N/A","MPN":"UG-50997","Part #":"CABUGR50997"}},{"part":"CABCUK000006","title":"CUKTECH 240W 6A 1.5m USB-C to USB-C Fast Charging Braided Cable - White -","subtitle":"Max 240W Ouput - Built-in E-Marker Intelligent Chip- Fast Charging iPhone, iPad,MacBook, Samsung Phones, Laptop - Suppport Up To Xiaomi 120W HyperCharge - Kevlar Strength","url":"https://www.pbtech.co.nz/product/CABCUK000006/CUKTECH-240W-6A-15m-USB-C-to-USB-C-Fast-Charging-B","price_nzd_inc_gst":18.6,"specs":{"Cable Length":"1.5m","Colour":"White","Connector 1":"USB-C (Male)","Connector 2":"USB-C (Male)","Braided":"Yes","HDMI Version":"N/A","MPN":"CTC615W Black","Part #":"CABCUK000006"}}]}
